<svg xmlns="http://www.w3.org/2000/svg" width="12" height="13">
	<g stroke-width="2" stroke="rgba(255, 255, 255, 0.6)" fill="none">
		<path d="M11.29 11.71l-4-4" />
		<circle cx="5" cy="5" r="4" />
	</g>
</svg>